{
  "shell_port": 52023,
  "iopub_port": 36099,
  "stdin_port": 35543,
  "control_port": 51857,
  "hb_port": 33561,
  "ip": "127.0.0.1",
  "key": "a8428a43-2aab204a10ca79f8154e3a70",
  "transport": "tcp",
  "signature_scheme": "hmac-sha256",
  "kernel_name": ""
}